('C:\\Users\\karl-jaak\\Documents\\Ulikool\\Bakalaureusetöö\\programm\\build\\AkadeemiliseTookoormuseKalkulaator\\out00-PKG.pkg',
 {'BINARY': 1,
  'DATA': 1,
  'EXECUTABLE': 1,
  'EXTENSION': 1,
  'PYMODULE': 1,
  'PYSOURCE': 1,
  'PYZ': 0},
 [('out00-PYZ.pyz',
   'C:\\Users\\karl-jaak\\Documents\\Ulikool\\Bakalaureusetöö\\programm\\build\\AkadeemiliseTookoormuseKalkulaator\\out00-PYZ.pyz',
   'PYZ'),
  ('struct', 'c:\\users\\karl-jaak\\anaconda3\\lib\\struct.pyo', 'PYMODULE'),
  ('pyimod01_os_path',
   'c:\\users\\karl-jaak\\anaconda3\\lib\\site-packages\\PyInstaller\\loader\\pyimod01_os_path.pyc',
   'PYMODULE'),
  ('pyimod02_archive',
   'c:\\users\\karl-jaak\\anaconda3\\lib\\site-packages\\PyInstaller\\loader\\pyimod02_archive.pyc',
   'PYMODULE'),
  ('pyimod03_importers',
   'c:\\users\\karl-jaak\\anaconda3\\lib\\site-packages\\PyInstaller\\loader\\pyimod03_importers.pyc',
   'PYMODULE'),
  ('pyiboot01_bootstrap',
   'c:\\users\\karl-jaak\\anaconda3\\lib\\site-packages\\PyInstaller\\loader\\pyiboot01_bootstrap.py',
   'PYSOURCE'),
  ('pyi_rth__tkinter',
   'c:\\users\\karl-jaak\\anaconda3\\lib\\site-packages\\PyInstaller\\loader\\rthooks\\pyi_rth__tkinter.py',
   'PYSOURCE'),
  ('AkadeemiliseTookoormuseKalkulaator',
   'C:\\Users\\karl-jaak\\Documents\\Ulikool\\Bakalaureusetöö\\programm\\AkadeemiliseTookoormuseKalkulaator.py',
   'PYSOURCE'),
  ('AkadeemiliseTookoormuseKalkulaator.exe.manifest',
   'C:\\Users\\karl-jaak\\Documents\\Ulikool\\Bakalaureusetöö\\programm\\build\\AkadeemiliseTookoormuseKalkulaator\\AkadeemiliseTookoormuseKalkulaator.exe.manifest',
   'BINARY')],
 True,
 False,
 False)
