('C:\\Users\\karl-jaak\\Documents\\Ulikool\\Bakalaureusetöö\\programm\\build\\AkadeemiliseTookoormuseKalkulaator\\out00-PYZ.pyz',
 [('ntpath', 'c:\\users\\karl-jaak\\anaconda3\\lib\\ntpath.py', 'PYMODULE'),
  ('_strptime',
   'c:\\users\\karl-jaak\\anaconda3\\lib\\_strptime.py',
   'PYMODULE'),
  ('datetime', 'c:\\users\\karl-jaak\\anaconda3\\lib\\datetime.py', 'PYMODULE'),
  ('stringprep',
   'c:\\users\\karl-jaak\\anaconda3\\lib\\stringprep.py',
   'PYMODULE'),
  ('stat', 'c:\\users\\karl-jaak\\anaconda3\\lib\\stat.py', 'PYMODULE'),
  ('genericpath',
   'c:\\users\\karl-jaak\\anaconda3\\lib\\genericpath.py',
   'PYMODULE'),
  ('posixpath',
   'c:\\users\\karl-jaak\\anaconda3\\lib\\posixpath.py',
   'PYMODULE'),
  ('fnmatch', 'c:\\users\\karl-jaak\\anaconda3\\lib\\fnmatch.py', 'PYMODULE'),
  ('struct', 'c:\\users\\karl-jaak\\anaconda3\\lib\\struct.py', 'PYMODULE'),
  ('_compat_pickle',
   'c:\\users\\karl-jaak\\anaconda3\\lib\\_compat_pickle.py',
   'PYMODULE'),
  ('__future__',
   'c:\\users\\karl-jaak\\anaconda3\\lib\\__future__.py',
   'PYMODULE'),
  ('difflib', 'c:\\users\\karl-jaak\\anaconda3\\lib\\difflib.py', 'PYMODULE'),
  ('ast', 'c:\\users\\karl-jaak\\anaconda3\\lib\\ast.py', 'PYMODULE'),
  ('inspect', 'c:\\users\\karl-jaak\\anaconda3\\lib\\inspect.py', 'PYMODULE'),
  ('cmd', 'c:\\users\\karl-jaak\\anaconda3\\lib\\cmd.py', 'PYMODULE'),
  ('bdb', 'c:\\users\\karl-jaak\\anaconda3\\lib\\bdb.py', 'PYMODULE'),
  ('opcode', 'c:\\users\\karl-jaak\\anaconda3\\lib\\opcode.py', 'PYMODULE'),
  ('dis', 'c:\\users\\karl-jaak\\anaconda3\\lib\\dis.py', 'PYMODULE'),
  ('codeop', 'c:\\users\\karl-jaak\\anaconda3\\lib\\codeop.py', 'PYMODULE'),
  ('code', 'c:\\users\\karl-jaak\\anaconda3\\lib\\code.py', 'PYMODULE'),
  ('glob', 'c:\\users\\karl-jaak\\anaconda3\\lib\\glob.py', 'PYMODULE'),
  ('shlex', 'c:\\users\\karl-jaak\\anaconda3\\lib\\shlex.py', 'PYMODULE'),
  ('importlib._bootstrap',
   'c:\\users\\karl-jaak\\anaconda3\\lib\\importlib\\_bootstrap.py',
   'PYMODULE'),
  ('importlib._bootstrap_external',
   'c:\\users\\karl-jaak\\anaconda3\\lib\\importlib\\_bootstrap_external.py',
   'PYMODULE'),
  ('importlib.machinery',
   'c:\\users\\karl-jaak\\anaconda3\\lib\\importlib\\machinery.py',
   'PYMODULE'),
  ('importlib.util',
   'c:\\users\\karl-jaak\\anaconda3\\lib\\importlib\\util.py',
   'PYMODULE'),
  ('importlib.abc',
   'c:\\users\\karl-jaak\\anaconda3\\lib\\importlib\\abc.py',
   'PYMODULE'),
  ('importlib',
   'c:\\users\\karl-jaak\\anaconda3\\lib\\importlib\\__init__.py',
   'PYMODULE'),
  ('pkgutil', 'c:\\users\\karl-jaak\\anaconda3\\lib\\pkgutil.py', 'PYMODULE'),
  ('xml', 'c:\\users\\karl-jaak\\anaconda3\\lib\\xml\\__init__.py', 'PYMODULE'),
  ('xml.sax.expatreader',
   'c:\\users\\karl-jaak\\anaconda3\\lib\\xml\\sax\\expatreader.py',
   'PYMODULE'),
  ('xml.sax.saxutils',
   'c:\\users\\karl-jaak\\anaconda3\\lib\\xml\\sax\\saxutils.py',
   'PYMODULE'),
  ('urllib.request',
   'c:\\users\\karl-jaak\\anaconda3\\lib\\urllib\\request.py',
   'PYMODULE'),
  ('getpass', 'c:\\users\\karl-jaak\\anaconda3\\lib\\getpass.py', 'PYMODULE'),
  ('nturl2path',
   'c:\\users\\karl-jaak\\anaconda3\\lib\\nturl2path.py',
   'PYMODULE'),
  ('ftplib', 'c:\\users\\karl-jaak\\anaconda3\\lib\\ftplib.py', 'PYMODULE'),
  ('netrc', 'c:\\users\\karl-jaak\\anaconda3\\lib\\netrc.py', 'PYMODULE'),
  ('http.cookiejar',
   'c:\\users\\karl-jaak\\anaconda3\\lib\\http\\cookiejar.py',
   'PYMODULE'),
  ('urllib.response',
   'c:\\users\\karl-jaak\\anaconda3\\lib\\urllib\\response.py',
   'PYMODULE'),
  ('urllib.error',
   'c:\\users\\karl-jaak\\anaconda3\\lib\\urllib\\error.py',
   'PYMODULE'),
  ('xml.sax',
   'c:\\users\\karl-jaak\\anaconda3\\lib\\xml\\sax\\__init__.py',
   'PYMODULE'),
  ('xml.sax.handler',
   'c:\\users\\karl-jaak\\anaconda3\\lib\\xml\\sax\\handler.py',
   'PYMODULE'),
  ('xml.sax._exceptions',
   'c:\\users\\karl-jaak\\anaconda3\\lib\\xml\\sax\\_exceptions.py',
   'PYMODULE'),
  ('xml.sax.xmlreader',
   'c:\\users\\karl-jaak\\anaconda3\\lib\\xml\\sax\\xmlreader.py',
   'PYMODULE'),
  ('xml.parsers',
   'c:\\users\\karl-jaak\\anaconda3\\lib\\xml\\parsers\\__init__.py',
   'PYMODULE'),
  ('xml.parsers.expat',
   'c:\\users\\karl-jaak\\anaconda3\\lib\\xml\\parsers\\expat.py',
   'PYMODULE'),
  ('plistlib', 'c:\\users\\karl-jaak\\anaconda3\\lib\\plistlib.py', 'PYMODULE'),
  ('platform', 'c:\\users\\karl-jaak\\anaconda3\\lib\\platform.py', 'PYMODULE'),
  ('token', 'c:\\users\\karl-jaak\\anaconda3\\lib\\token.py', 'PYMODULE'),
  ('tokenize', 'c:\\users\\karl-jaak\\anaconda3\\lib\\tokenize.py', 'PYMODULE'),
  ('urllib.parse',
   'c:\\users\\karl-jaak\\anaconda3\\lib\\urllib\\parse.py',
   'PYMODULE'),
  ('tempfile', 'c:\\users\\karl-jaak\\anaconda3\\lib\\tempfile.py', 'PYMODULE'),
  ('tty', 'c:\\users\\karl-jaak\\anaconda3\\lib\\tty.py', 'PYMODULE'),
  ('pydoc_data',
   'c:\\users\\karl-jaak\\anaconda3\\lib\\pydoc_data\\__init__.py',
   'PYMODULE'),
  ('pydoc_data.topics',
   'c:\\users\\karl-jaak\\anaconda3\\lib\\pydoc_data\\topics.py',
   'PYMODULE'),
  ('html.entities',
   'c:\\users\\karl-jaak\\anaconda3\\lib\\html\\entities.py',
   'PYMODULE'),
  ('html',
   'c:\\users\\karl-jaak\\anaconda3\\lib\\html\\__init__.py',
   'PYMODULE'),
  ('ipaddress',
   'c:\\users\\karl-jaak\\anaconda3\\lib\\ipaddress.py',
   'PYMODULE'),
  ('ssl', 'c:\\users\\karl-jaak\\anaconda3\\lib\\ssl.py', 'PYMODULE'),
  ('http.client',
   'c:\\users\\karl-jaak\\anaconda3\\lib\\http\\client.py',
   'PYMODULE'),
  ('mimetypes',
   'c:\\users\\karl-jaak\\anaconda3\\lib\\mimetypes.py',
   'PYMODULE'),
  ('socketserver',
   'c:\\users\\karl-jaak\\anaconda3\\lib\\socketserver.py',
   'PYMODULE'),
  ('http',
   'c:\\users\\karl-jaak\\anaconda3\\lib\\http\\__init__.py',
   'PYMODULE'),
  ('http.server',
   'c:\\users\\karl-jaak\\anaconda3\\lib\\http\\server.py',
   'PYMODULE'),
  ('optparse', 'c:\\users\\karl-jaak\\anaconda3\\lib\\optparse.py', 'PYMODULE'),
  ('uu', 'c:\\users\\karl-jaak\\anaconda3\\lib\\uu.py', 'PYMODULE'),
  ('quopri', 'c:\\users\\karl-jaak\\anaconda3\\lib\\quopri.py', 'PYMODULE'),
  ('email.feedparser',
   'c:\\users\\karl-jaak\\anaconda3\\lib\\email\\feedparser.py',
   'PYMODULE'),
  ('email.parser',
   'c:\\users\\karl-jaak\\anaconda3\\lib\\email\\parser.py',
   'PYMODULE'),
  ('email',
   'c:\\users\\karl-jaak\\anaconda3\\lib\\email\\__init__.py',
   'PYMODULE'),
  ('calendar', 'c:\\users\\karl-jaak\\anaconda3\\lib\\calendar.py', 'PYMODULE'),
  ('email._parseaddr',
   'c:\\users\\karl-jaak\\anaconda3\\lib\\email\\_parseaddr.py',
   'PYMODULE'),
  ('email.utils',
   'c:\\users\\karl-jaak\\anaconda3\\lib\\email\\utils.py',
   'PYMODULE'),
  ('email.errors',
   'c:\\users\\karl-jaak\\anaconda3\\lib\\email\\errors.py',
   'PYMODULE'),
  ('email.header',
   'c:\\users\\karl-jaak\\anaconda3\\lib\\email\\header.py',
   'PYMODULE'),
  ('email._policybase',
   'c:\\users\\karl-jaak\\anaconda3\\lib\\email\\_policybase.py',
   'PYMODULE'),
  ('email.base64mime',
   'c:\\users\\karl-jaak\\anaconda3\\lib\\email\\base64mime.py',
   'PYMODULE'),
  ('email.encoders',
   'c:\\users\\karl-jaak\\anaconda3\\lib\\email\\encoders.py',
   'PYMODULE'),
  ('email.charset',
   'c:\\users\\karl-jaak\\anaconda3\\lib\\email\\charset.py',
   'PYMODULE'),
  ('base64', 'c:\\users\\karl-jaak\\anaconda3\\lib\\base64.py', 'PYMODULE'),
  ('email._encoded_words',
   'c:\\users\\karl-jaak\\anaconda3\\lib\\email\\_encoded_words.py',
   'PYMODULE'),
  ('hashlib', 'c:\\users\\karl-jaak\\anaconda3\\lib\\hashlib.py', 'PYMODULE'),
  ('bisect', 'c:\\users\\karl-jaak\\anaconda3\\lib\\bisect.py', 'PYMODULE'),
  ('random', 'c:\\users\\karl-jaak\\anaconda3\\lib\\random.py', 'PYMODULE'),
  ('email.generator',
   'c:\\users\\karl-jaak\\anaconda3\\lib\\email\\generator.py',
   'PYMODULE'),
  ('email.iterators',
   'c:\\users\\karl-jaak\\anaconda3\\lib\\email\\iterators.py',
   'PYMODULE'),
  ('urllib',
   'c:\\users\\karl-jaak\\anaconda3\\lib\\urllib\\__init__.py',
   'PYMODULE'),
  ('email._header_value_parser',
   'c:\\users\\karl-jaak\\anaconda3\\lib\\email\\_header_value_parser.py',
   'PYMODULE'),
  ('email.headerregistry',
   'c:\\users\\karl-jaak\\anaconda3\\lib\\email\\headerregistry.py',
   'PYMODULE'),
  ('email.quoprimime',
   'c:\\users\\karl-jaak\\anaconda3\\lib\\email\\quoprimime.py',
   'PYMODULE'),
  ('email.contentmanager',
   'c:\\users\\karl-jaak\\anaconda3\\lib\\email\\contentmanager.py',
   'PYMODULE'),
  ('email.policy',
   'c:\\users\\karl-jaak\\anaconda3\\lib\\email\\policy.py',
   'PYMODULE'),
  ('email.message',
   'c:\\users\\karl-jaak\\anaconda3\\lib\\email\\message.py',
   'PYMODULE'),
  ('bz2', 'c:\\users\\karl-jaak\\anaconda3\\lib\\bz2.py', 'PYMODULE'),
  ('lzma', 'c:\\users\\karl-jaak\\anaconda3\\lib\\lzma.py', 'PYMODULE'),
  ('_compression',
   'c:\\users\\karl-jaak\\anaconda3\\lib\\_compression.py',
   'PYMODULE'),
  ('gzip', 'c:\\users\\karl-jaak\\anaconda3\\lib\\gzip.py', 'PYMODULE'),
  ('tarfile', 'c:\\users\\karl-jaak\\anaconda3\\lib\\tarfile.py', 'PYMODULE'),
  ('py_compile',
   'c:\\users\\karl-jaak\\anaconda3\\lib\\py_compile.py',
   'PYMODULE'),
  ('zipfile', 'c:\\users\\karl-jaak\\anaconda3\\lib\\zipfile.py', 'PYMODULE'),
  ('shutil', 'c:\\users\\karl-jaak\\anaconda3\\lib\\shutil.py', 'PYMODULE'),
  ('socket', 'c:\\users\\karl-jaak\\anaconda3\\lib\\socket.py', 'PYMODULE'),
  ('webbrowser',
   'c:\\users\\karl-jaak\\anaconda3\\lib\\webbrowser.py',
   'PYMODULE'),
  ('pydoc', 'c:\\users\\karl-jaak\\anaconda3\\lib\\pydoc.py', 'PYMODULE'),
  ('getopt', 'c:\\users\\karl-jaak\\anaconda3\\lib\\getopt.py', 'PYMODULE'),
  ('pdb', 'c:\\users\\karl-jaak\\anaconda3\\lib\\pdb.py', 'PYMODULE'),
  ('unittest.util',
   'c:\\users\\karl-jaak\\anaconda3\\lib\\unittest\\util.py',
   'PYMODULE'),
  ('unittest.result',
   'c:\\users\\karl-jaak\\anaconda3\\lib\\unittest\\result.py',
   'PYMODULE'),
  ('string', 'c:\\users\\karl-jaak\\anaconda3\\lib\\string.py', 'PYMODULE'),
  ('logging',
   'c:\\users\\karl-jaak\\anaconda3\\lib\\logging\\__init__.py',
   'PYMODULE'),
  ('unittest.case',
   'c:\\users\\karl-jaak\\anaconda3\\lib\\unittest\\case.py',
   'PYMODULE'),
  ('unittest.suite',
   'c:\\users\\karl-jaak\\anaconda3\\lib\\unittest\\suite.py',
   'PYMODULE'),
  ('unittest.loader',
   'c:\\users\\karl-jaak\\anaconda3\\lib\\unittest\\loader.py',
   'PYMODULE'),
  ('unittest.runner',
   'c:\\users\\karl-jaak\\anaconda3\\lib\\unittest\\runner.py',
   'PYMODULE'),
  ('unittest.main',
   'c:\\users\\karl-jaak\\anaconda3\\lib\\unittest\\main.py',
   'PYMODULE'),
  ('unittest.signals',
   'c:\\users\\karl-jaak\\anaconda3\\lib\\unittest\\signals.py',
   'PYMODULE'),
  ('unittest',
   'c:\\users\\karl-jaak\\anaconda3\\lib\\unittest\\__init__.py',
   'PYMODULE'),
  ('doctest', 'c:\\users\\karl-jaak\\anaconda3\\lib\\doctest.py', 'PYMODULE'),
  ('copy', 'c:\\users\\karl-jaak\\anaconda3\\lib\\copy.py', 'PYMODULE'),
  ('textwrap', 'c:\\users\\karl-jaak\\anaconda3\\lib\\textwrap.py', 'PYMODULE'),
  ('gettext', 'c:\\users\\karl-jaak\\anaconda3\\lib\\gettext.py', 'PYMODULE'),
  ('argparse', 'c:\\users\\karl-jaak\\anaconda3\\lib\\argparse.py', 'PYMODULE'),
  ('pprint', 'c:\\users\\karl-jaak\\anaconda3\\lib\\pprint.py', 'PYMODULE'),
  ('pickle', 'c:\\users\\karl-jaak\\anaconda3\\lib\\pickle.py', 'PYMODULE'),
  ('tracemalloc',
   'c:\\users\\karl-jaak\\anaconda3\\lib\\tracemalloc.py',
   'PYMODULE'),
  ('warnings', 'c:\\users\\karl-jaak\\anaconda3\\lib\\warnings.py', 'PYMODULE'),
  ('enum', 'c:\\users\\karl-jaak\\anaconda3\\lib\\enum.py', 'PYMODULE'),
  ('signal', 'c:\\users\\karl-jaak\\anaconda3\\lib\\signal.py', 'PYMODULE'),
  ('contextlib',
   'c:\\users\\karl-jaak\\anaconda3\\lib\\contextlib.py',
   'PYMODULE'),
  ('_threading_local',
   'c:\\users\\karl-jaak\\anaconda3\\lib\\_threading_local.py',
   'PYMODULE'),
  ('threading',
   'c:\\users\\karl-jaak\\anaconda3\\lib\\threading.py',
   'PYMODULE'),
  ('selectors',
   'c:\\users\\karl-jaak\\anaconda3\\lib\\selectors.py',
   'PYMODULE'),
  ('_dummy_thread',
   'c:\\users\\karl-jaak\\anaconda3\\lib\\_dummy_thread.py',
   'PYMODULE'),
  ('dummy_threading',
   'c:\\users\\karl-jaak\\anaconda3\\lib\\dummy_threading.py',
   'PYMODULE'),
  ('subprocess',
   'c:\\users\\karl-jaak\\anaconda3\\lib\\subprocess.py',
   'PYMODULE'),
  ('os', 'c:\\users\\karl-jaak\\anaconda3\\lib\\os.py', 'PYMODULE'),
  ('xlrd',
   'c:\\users\\karl-jaak\\anaconda3\\lib\\site-packages\\xlrd\\__init__.py',
   'PYMODULE'),
  ('xlrd.xlsx',
   'c:\\users\\karl-jaak\\anaconda3\\lib\\site-packages\\xlrd\\xlsx.py',
   'PYMODULE'),
  ('lxml',
   'c:\\users\\karl-jaak\\anaconda3\\lib\\site-packages\\lxml\\__init__.py',
   'PYMODULE'),
  ('xml.etree.cElementTree',
   'c:\\users\\karl-jaak\\anaconda3\\lib\\xml\\etree\\cElementTree.py',
   'PYMODULE'),
  ('xml.etree',
   'c:\\users\\karl-jaak\\anaconda3\\lib\\xml\\etree\\__init__.py',
   'PYMODULE'),
  ('xml.etree.ElementPath',
   'c:\\users\\karl-jaak\\anaconda3\\lib\\xml\\etree\\ElementPath.py',
   'PYMODULE'),
  ('xml.etree.ElementTree',
   'c:\\users\\karl-jaak\\anaconda3\\lib\\xml\\etree\\ElementTree.py',
   'PYMODULE'),
  ('xml.etree.ElementInclude',
   'c:\\users\\karl-jaak\\anaconda3\\lib\\xml\\etree\\ElementInclude.py',
   'PYMODULE'),
  ('xlrd.formatting',
   'c:\\users\\karl-jaak\\anaconda3\\lib\\site-packages\\xlrd\\formatting.py',
   'PYMODULE'),
  ('xlrd.xldate',
   'c:\\users\\karl-jaak\\anaconda3\\lib\\site-packages\\xlrd\\xldate.py',
   'PYMODULE'),
  ('xlrd.book',
   'c:\\users\\karl-jaak\\anaconda3\\lib\\site-packages\\xlrd\\book.py',
   'PYMODULE'),
  ('xlrd.compdoc',
   'c:\\users\\karl-jaak\\anaconda3\\lib\\site-packages\\xlrd\\compdoc.py',
   'PYMODULE'),
  ('xlrd.sheet',
   'c:\\users\\karl-jaak\\anaconda3\\lib\\site-packages\\xlrd\\sheet.py',
   'PYMODULE'),
  ('xlrd.formula',
   'c:\\users\\karl-jaak\\anaconda3\\lib\\site-packages\\xlrd\\formula.py',
   'PYMODULE'),
  ('xlrd.biffh',
   'c:\\users\\karl-jaak\\anaconda3\\lib\\site-packages\\xlrd\\biffh.py',
   'PYMODULE'),
  ('xlrd.timemachine',
   'c:\\users\\karl-jaak\\anaconda3\\lib\\site-packages\\xlrd\\timemachine.py',
   'PYMODULE'),
  ('xlrd.info',
   'c:\\users\\karl-jaak\\anaconda3\\lib\\site-packages\\xlrd\\info.py',
   'PYMODULE'),
  ('scholarly',
   'c:\\users\\karl-jaak\\anaconda3\\lib\\site-packages\\scholarly.py',
   'PYMODULE'),
  ('requests',
   'c:\\users\\karl-jaak\\anaconda3\\lib\\site-packages\\requests\\__init__.py',
   'PYMODULE'),
  ('requests.status_codes',
   'c:\\users\\karl-jaak\\anaconda3\\lib\\site-packages\\requests\\status_codes.py',
   'PYMODULE'),
  ('requests.structures',
   'c:\\users\\karl-jaak\\anaconda3\\lib\\site-packages\\requests\\structures.py',
   'PYMODULE'),
  ('requests.compat',
   'c:\\users\\karl-jaak\\anaconda3\\lib\\site-packages\\requests\\compat.py',
   'PYMODULE'),
  ('http.cookies',
   'c:\\users\\karl-jaak\\anaconda3\\lib\\http\\cookies.py',
   'PYMODULE'),
  ('urllib3.packages.ordered_dict',
   'c:\\users\\karl-jaak\\anaconda3\\lib\\site-packages\\urllib3\\packages\\ordered_dict.py',
   'PYMODULE'),
  ('urllib3.packages',
   'c:\\users\\karl-jaak\\anaconda3\\lib\\site-packages\\urllib3\\packages\\__init__.py',
   'PYMODULE'),
  ('urllib3.packages.ssl_match_hostname',
   'c:\\users\\karl-jaak\\anaconda3\\lib\\site-packages\\urllib3\\packages\\ssl_match_hostname\\__init__.py',
   'PYMODULE'),
  ('urllib3.packages.ssl_match_hostname._implementation',
   'c:\\users\\karl-jaak\\anaconda3\\lib\\site-packages\\urllib3\\packages\\ssl_match_hostname\\_implementation.py',
   'PYMODULE'),
  ('requests.api',
   'c:\\users\\karl-jaak\\anaconda3\\lib\\site-packages\\requests\\api.py',
   'PYMODULE'),
  ('requests.sessions',
   'c:\\users\\karl-jaak\\anaconda3\\lib\\site-packages\\requests\\sessions.py',
   'PYMODULE'),
  ('requests.adapters',
   'c:\\users\\karl-jaak\\anaconda3\\lib\\site-packages\\requests\\adapters.py',
   'PYMODULE'),
  ('urllib3.contrib.socks',
   'c:\\users\\karl-jaak\\anaconda3\\lib\\site-packages\\urllib3\\contrib\\socks.py',
   'PYMODULE'),
  ('urllib3.util.url',
   'c:\\users\\karl-jaak\\anaconda3\\lib\\site-packages\\urllib3\\util\\url.py',
   'PYMODULE'),
  ('urllib3.connectionpool',
   'c:\\users\\karl-jaak\\anaconda3\\lib\\site-packages\\urllib3\\connectionpool.py',
   'PYMODULE'),
  ('urllib3.util.timeout',
   'c:\\users\\karl-jaak\\anaconda3\\lib\\site-packages\\urllib3\\util\\timeout.py',
   'PYMODULE'),
  ('urllib3.util.response',
   'c:\\users\\karl-jaak\\anaconda3\\lib\\site-packages\\urllib3\\util\\response.py',
   'PYMODULE'),
  ('urllib3.util.request',
   'c:\\users\\karl-jaak\\anaconda3\\lib\\site-packages\\urllib3\\util\\request.py',
   'PYMODULE'),
  ('urllib3.util.connection',
   'c:\\users\\karl-jaak\\anaconda3\\lib\\site-packages\\urllib3\\util\\connection.py',
   'PYMODULE'),
  ('urllib3.util.selectors',
   'c:\\users\\karl-jaak\\anaconda3\\lib\\site-packages\\urllib3\\util\\selectors.py',
   'PYMODULE'),
  ('urllib3.util.wait',
   'c:\\users\\karl-jaak\\anaconda3\\lib\\site-packages\\urllib3\\util\\wait.py',
   'PYMODULE'),
  ('urllib3.request',
   'c:\\users\\karl-jaak\\anaconda3\\lib\\site-packages\\urllib3\\request.py',
   'PYMODULE'),
  ('urllib3.filepost',
   'c:\\users\\karl-jaak\\anaconda3\\lib\\site-packages\\urllib3\\filepost.py',
   'PYMODULE'),
  ('urllib3.fields',
   'c:\\users\\karl-jaak\\anaconda3\\lib\\site-packages\\urllib3\\fields.py',
   'PYMODULE'),
  ('uuid', 'c:\\users\\karl-jaak\\anaconda3\\lib\\uuid.py', 'PYMODULE'),
  ('ctypes.util',
   'c:\\users\\karl-jaak\\anaconda3\\lib\\ctypes\\util.py',
   'PYMODULE'),
  ('ctypes.macholib.dyld',
   'c:\\users\\karl-jaak\\anaconda3\\lib\\ctypes\\macholib\\dyld.py',
   'PYMODULE'),
  ('ctypes.macholib',
   'c:\\users\\karl-jaak\\anaconda3\\lib\\ctypes\\macholib\\__init__.py',
   'PYMODULE'),
  ('ctypes.macholib.dylib',
   'c:\\users\\karl-jaak\\anaconda3\\lib\\ctypes\\macholib\\dylib.py',
   'PYMODULE'),
  ('ctypes.macholib.framework',
   'c:\\users\\karl-jaak\\anaconda3\\lib\\ctypes\\macholib\\framework.py',
   'PYMODULE'),
  ('netbios',
   'c:\\users\\karl-jaak\\anaconda3\\lib\\site-packages\\win32\\lib\\netbios.py',
   'PYMODULE'),
  ('ctypes',
   'c:\\users\\karl-jaak\\anaconda3\\lib\\ctypes\\__init__.py',
   'PYMODULE'),
  ('ctypes._endian',
   'c:\\users\\karl-jaak\\anaconda3\\lib\\ctypes\\_endian.py',
   'PYMODULE'),
  ('queue', 'c:\\users\\karl-jaak\\anaconda3\\lib\\queue.py', 'PYMODULE'),
  ('urllib3.packages.six',
   'c:\\users\\karl-jaak\\anaconda3\\lib\\site-packages\\urllib3\\packages\\six.py',
   'PYMODULE'),
  ('urllib3.connection',
   'c:\\users\\karl-jaak\\anaconda3\\lib\\site-packages\\urllib3\\connection.py',
   'PYMODULE'),
  ('urllib3._collections',
   'c:\\users\\karl-jaak\\anaconda3\\lib\\site-packages\\urllib3\\_collections.py',
   'PYMODULE'),
  ('urllib3.util.ssl_',
   'c:\\users\\karl-jaak\\anaconda3\\lib\\site-packages\\urllib3\\util\\ssl_.py',
   'PYMODULE'),
  ('hmac', 'c:\\users\\karl-jaak\\anaconda3\\lib\\hmac.py', 'PYMODULE'),
  ('socks',
   'c:\\users\\karl-jaak\\anaconda3\\lib\\site-packages\\socks.py',
   'PYMODULE'),
  ('win_inet_pton',
   'c:\\users\\karl-jaak\\anaconda3\\lib\\site-packages\\win_inet_pton.py',
   'PYMODULE'),
  ('urllib3.util.retry',
   'c:\\users\\karl-jaak\\anaconda3\\lib\\site-packages\\urllib3\\util\\retry.py',
   'PYMODULE'),
  ('urllib3.util',
   'c:\\users\\karl-jaak\\anaconda3\\lib\\site-packages\\urllib3\\util\\__init__.py',
   'PYMODULE'),
  ('urllib3.response',
   'c:\\users\\karl-jaak\\anaconda3\\lib\\site-packages\\urllib3\\response.py',
   'PYMODULE'),
  ('urllib3.poolmanager',
   'c:\\users\\karl-jaak\\anaconda3\\lib\\site-packages\\urllib3\\poolmanager.py',
   'PYMODULE'),
  ('requests._internal_utils',
   'c:\\users\\karl-jaak\\anaconda3\\lib\\site-packages\\requests\\_internal_utils.py',
   'PYMODULE'),
  ('requests.hooks',
   'c:\\users\\karl-jaak\\anaconda3\\lib\\site-packages\\requests\\hooks.py',
   'PYMODULE'),
  ('requests.cookies',
   'c:\\users\\karl-jaak\\anaconda3\\lib\\site-packages\\requests\\cookies.py',
   'PYMODULE'),
  ('requests.auth',
   'c:\\users\\karl-jaak\\anaconda3\\lib\\site-packages\\requests\\auth.py',
   'PYMODULE'),
  ('requests.models',
   'c:\\users\\karl-jaak\\anaconda3\\lib\\site-packages\\requests\\models.py',
   'PYMODULE'),
  ('idna',
   'c:\\users\\karl-jaak\\anaconda3\\lib\\site-packages\\idna\\__init__.py',
   'PYMODULE'),
  ('idna.core',
   'c:\\users\\karl-jaak\\anaconda3\\lib\\site-packages\\idna\\core.py',
   'PYMODULE'),
  ('idna.uts46data',
   'c:\\users\\karl-jaak\\anaconda3\\lib\\site-packages\\idna\\uts46data.py',
   'PYMODULE'),
  ('idna.intranges',
   'c:\\users\\karl-jaak\\anaconda3\\lib\\site-packages\\idna\\intranges.py',
   'PYMODULE'),
  ('idna.idnadata',
   'c:\\users\\karl-jaak\\anaconda3\\lib\\site-packages\\idna\\idnadata.py',
   'PYMODULE'),
  ('idna.package_data',
   'c:\\users\\karl-jaak\\anaconda3\\lib\\site-packages\\idna\\package_data.py',
   'PYMODULE'),
  ('requests.packages',
   'c:\\users\\karl-jaak\\anaconda3\\lib\\site-packages\\requests\\packages.py',
   'PYMODULE'),
  ('requests.utils',
   'c:\\users\\karl-jaak\\anaconda3\\lib\\site-packages\\requests\\utils.py',
   'PYMODULE'),
  ('cgi', 'c:\\users\\karl-jaak\\anaconda3\\lib\\cgi.py', 'PYMODULE'),
  ('requests.certs',
   'c:\\users\\karl-jaak\\anaconda3\\lib\\site-packages\\requests\\certs.py',
   'PYMODULE'),
  ('certifi',
   'c:\\users\\karl-jaak\\anaconda3\\lib\\site-packages\\certifi\\__init__.py',
   'PYMODULE'),
  ('certifi.core',
   'c:\\users\\karl-jaak\\anaconda3\\lib\\site-packages\\certifi\\core.py',
   'PYMODULE'),
  ('requests.__version__',
   'c:\\users\\karl-jaak\\anaconda3\\lib\\site-packages\\requests\\__version__.py',
   'PYMODULE'),
  ('urllib3.exceptions',
   'c:\\users\\karl-jaak\\anaconda3\\lib\\site-packages\\urllib3\\exceptions.py',
   'PYMODULE'),
  ('urllib3.contrib.pyopenssl',
   'c:\\users\\karl-jaak\\anaconda3\\lib\\site-packages\\urllib3\\contrib\\pyopenssl.py',
   'PYMODULE'),
  ('OpenSSL.crypto',
   'c:\\users\\karl-jaak\\anaconda3\\lib\\site-packages\\OpenSSL\\crypto.py',
   'PYMODULE'),
  ('OpenSSL',
   'c:\\users\\karl-jaak\\anaconda3\\lib\\site-packages\\OpenSSL\\__init__.py',
   'PYMODULE'),
  ('OpenSSL.version',
   'c:\\users\\karl-jaak\\anaconda3\\lib\\site-packages\\OpenSSL\\version.py',
   'PYMODULE'),
  ('OpenSSL._util',
   'c:\\users\\karl-jaak\\anaconda3\\lib\\site-packages\\OpenSSL\\_util.py',
   'PYMODULE'),
  ('cryptography.hazmat.bindings.openssl.binding',
   'c:\\users\\karl-jaak\\anaconda3\\lib\\site-packages\\cryptography\\hazmat\\bindings\\openssl\\binding.py',
   'PYMODULE'),
  ('cryptography.hazmat.bindings.openssl',
   'c:\\users\\karl-jaak\\anaconda3\\lib\\site-packages\\cryptography\\hazmat\\bindings\\openssl\\__init__.py',
   'PYMODULE'),
  ('cryptography.hazmat.bindings',
   'c:\\users\\karl-jaak\\anaconda3\\lib\\site-packages\\cryptography\\hazmat\\bindings\\__init__.py',
   'PYMODULE'),
  ('cryptography.hazmat',
   'c:\\users\\karl-jaak\\anaconda3\\lib\\site-packages\\cryptography\\hazmat\\__init__.py',
   'PYMODULE'),
  ('cryptography.hazmat.bindings.openssl._conditional',
   'c:\\users\\karl-jaak\\anaconda3\\lib\\site-packages\\cryptography\\hazmat\\bindings\\openssl\\_conditional.py',
   'PYMODULE'),
  ('cryptography.exceptions',
   'c:\\users\\karl-jaak\\anaconda3\\lib\\site-packages\\cryptography\\exceptions.py',
   'PYMODULE'),
  ('cryptography.utils',
   'c:\\users\\karl-jaak\\anaconda3\\lib\\site-packages\\cryptography\\utils.py',
   'PYMODULE'),
  ('cryptography.hazmat.primitives.asymmetric.rsa',
   'c:\\users\\karl-jaak\\anaconda3\\lib\\site-packages\\cryptography\\hazmat\\primitives\\asymmetric\\rsa.py',
   'PYMODULE'),
  ('cryptography.hazmat.backends.interfaces',
   'c:\\users\\karl-jaak\\anaconda3\\lib\\site-packages\\cryptography\\hazmat\\backends\\interfaces.py',
   'PYMODULE'),
  ('cryptography.hazmat.backends',
   'c:\\users\\karl-jaak\\anaconda3\\lib\\site-packages\\cryptography\\hazmat\\backends\\__init__.py',
   'PYMODULE'),
  ('fractions',
   'c:\\users\\karl-jaak\\anaconda3\\lib\\fractions.py',
   'PYMODULE'),
  ('numbers', 'c:\\users\\karl-jaak\\anaconda3\\lib\\numbers.py', 'PYMODULE'),
  ('decimal', 'c:\\users\\karl-jaak\\anaconda3\\lib\\decimal.py', 'PYMODULE'),
  ('_pydecimal',
   'c:\\users\\karl-jaak\\anaconda3\\lib\\_pydecimal.py',
   'PYMODULE'),
  ('cryptography.hazmat.primitives.asymmetric.dsa',
   'c:\\users\\karl-jaak\\anaconda3\\lib\\site-packages\\cryptography\\hazmat\\primitives\\asymmetric\\dsa.py',
   'PYMODULE'),
  ('cryptography.hazmat.primitives.asymmetric',
   'c:\\users\\karl-jaak\\anaconda3\\lib\\site-packages\\cryptography\\hazmat\\primitives\\asymmetric\\__init__.py',
   'PYMODULE'),
  ('cryptography.hazmat.primitives.asymmetric.dh',
   'c:\\users\\karl-jaak\\anaconda3\\lib\\site-packages\\cryptography\\hazmat\\primitives\\asymmetric\\dh.py',
   'PYMODULE'),
  ('cryptography.hazmat.primitives.asymmetric.ec',
   'c:\\users\\karl-jaak\\anaconda3\\lib\\site-packages\\cryptography\\hazmat\\primitives\\asymmetric\\ec.py',
   'PYMODULE'),
  ('cryptography.hazmat.primitives',
   'c:\\users\\karl-jaak\\anaconda3\\lib\\site-packages\\cryptography\\hazmat\\primitives\\__init__.py',
   'PYMODULE'),
  ('cryptography.hazmat.primitives.hashes',
   'c:\\users\\karl-jaak\\anaconda3\\lib\\site-packages\\cryptography\\hazmat\\primitives\\hashes.py',
   'PYMODULE'),
  ('cryptography.hazmat.primitives.serialization',
   'c:\\users\\karl-jaak\\anaconda3\\lib\\site-packages\\cryptography\\hazmat\\primitives\\serialization.py',
   'PYMODULE'),
  ('cryptography.hazmat.primitives.mac',
   'c:\\users\\karl-jaak\\anaconda3\\lib\\site-packages\\cryptography\\hazmat\\primitives\\mac.py',
   'PYMODULE'),
  ('cryptography.hazmat.primitives.constant_time',
   'c:\\users\\karl-jaak\\anaconda3\\lib\\site-packages\\cryptography\\hazmat\\primitives\\constant_time.py',
   'PYMODULE'),
  ('six',
   'c:\\users\\karl-jaak\\anaconda3\\lib\\site-packages\\six.py',
   'PYMODULE'),
  ('cryptography.x509.extensions',
   'c:\\users\\karl-jaak\\anaconda3\\lib\\site-packages\\cryptography\\x509\\extensions.py',
   'PYMODULE'),
  ('cryptography.x509.oid',
   'c:\\users\\karl-jaak\\anaconda3\\lib\\site-packages\\cryptography\\x509\\oid.py',
   'PYMODULE'),
  ('cryptography.x509.name',
   'c:\\users\\karl-jaak\\anaconda3\\lib\\site-packages\\cryptography\\x509\\name.py',
   'PYMODULE'),
  ('cryptography.x509.general_name',
   'c:\\users\\karl-jaak\\anaconda3\\lib\\site-packages\\cryptography\\x509\\general_name.py',
   'PYMODULE'),
  ('cryptography.x509.certificate_transparency',
   'c:\\users\\karl-jaak\\anaconda3\\lib\\site-packages\\cryptography\\x509\\certificate_transparency.py',
   'PYMODULE'),
  ('asn1crypto.keys',
   'c:\\users\\karl-jaak\\anaconda3\\lib\\site-packages\\asn1crypto\\keys.py',
   'PYMODULE'),
  ('asn1crypto',
   'c:\\users\\karl-jaak\\anaconda3\\lib\\site-packages\\asn1crypto\\__init__.py',
   'PYMODULE'),
  ('asn1crypto._teletex_codec',
   'c:\\users\\karl-jaak\\anaconda3\\lib\\site-packages\\asn1crypto\\_teletex_codec.py',
   'PYMODULE'),
  ('asn1crypto.version',
   'c:\\users\\karl-jaak\\anaconda3\\lib\\site-packages\\asn1crypto\\version.py',
   'PYMODULE'),
  ('asn1crypto.util',
   'c:\\users\\karl-jaak\\anaconda3\\lib\\site-packages\\asn1crypto\\util.py',
   'PYMODULE'),
  ('asn1crypto._inet',
   'c:\\users\\karl-jaak\\anaconda3\\lib\\site-packages\\asn1crypto\\_inet.py',
   'PYMODULE'),
  ('asn1crypto._ordereddict',
   'c:\\users\\karl-jaak\\anaconda3\\lib\\site-packages\\asn1crypto\\_ordereddict.py',
   'PYMODULE'),
  ('asn1crypto._iri',
   'c:\\users\\karl-jaak\\anaconda3\\lib\\site-packages\\asn1crypto\\_iri.py',
   'PYMODULE'),
  ('asn1crypto.core',
   'c:\\users\\karl-jaak\\anaconda3\\lib\\site-packages\\asn1crypto\\core.py',
   'PYMODULE'),
  ('asn1crypto.parser',
   'c:\\users\\karl-jaak\\anaconda3\\lib\\site-packages\\asn1crypto\\parser.py',
   'PYMODULE'),
  ('asn1crypto.algos',
   'c:\\users\\karl-jaak\\anaconda3\\lib\\site-packages\\asn1crypto\\algos.py',
   'PYMODULE'),
  ('asn1crypto._int',
   'c:\\users\\karl-jaak\\anaconda3\\lib\\site-packages\\asn1crypto\\_int.py',
   'PYMODULE'),
  ('asn1crypto._perf._big_num_ctypes',
   'c:\\users\\karl-jaak\\anaconda3\\lib\\site-packages\\asn1crypto\\_perf\\_big_num_ctypes.py',
   'PYMODULE'),
  ('asn1crypto._perf',
   'c:\\users\\karl-jaak\\anaconda3\\lib\\site-packages\\asn1crypto\\_perf\\__init__.py',
   'PYMODULE'),
  ('asn1crypto._ffi',
   'c:\\users\\karl-jaak\\anaconda3\\lib\\site-packages\\asn1crypto\\_ffi.py',
   'PYMODULE'),
  ('asn1crypto._types',
   'c:\\users\\karl-jaak\\anaconda3\\lib\\site-packages\\asn1crypto\\_types.py',
   'PYMODULE'),
  ('asn1crypto._errors',
   'c:\\users\\karl-jaak\\anaconda3\\lib\\site-packages\\asn1crypto\\_errors.py',
   'PYMODULE'),
  ('asn1crypto._elliptic_curve',
   'c:\\users\\karl-jaak\\anaconda3\\lib\\site-packages\\asn1crypto\\_elliptic_curve.py',
   'PYMODULE'),
  ('urllib3.packages.backports.makefile',
   'c:\\users\\karl-jaak\\anaconda3\\lib\\site-packages\\urllib3\\packages\\backports\\makefile.py',
   'PYMODULE'),
  ('urllib3.packages.backports',
   'c:\\users\\karl-jaak\\anaconda3\\lib\\site-packages\\urllib3\\packages\\backports\\__init__.py',
   'PYMODULE'),
  ('cryptography.hazmat.backends.openssl.x509',
   'c:\\users\\karl-jaak\\anaconda3\\lib\\site-packages\\cryptography\\hazmat\\backends\\openssl\\x509.py',
   'PYMODULE'),
  ('cryptography.hazmat.backends.openssl.decode_asn1',
   'c:\\users\\karl-jaak\\anaconda3\\lib\\site-packages\\cryptography\\hazmat\\backends\\openssl\\decode_asn1.py',
   'PYMODULE'),
  ('cryptography.hazmat.backends.openssl.backend',
   'c:\\users\\karl-jaak\\anaconda3\\lib\\site-packages\\cryptography\\hazmat\\backends\\openssl\\backend.py',
   'PYMODULE'),
  ('cryptography.hazmat.primitives.kdf.scrypt',
   'c:\\users\\karl-jaak\\anaconda3\\lib\\site-packages\\cryptography\\hazmat\\primitives\\kdf\\scrypt.py',
   'PYMODULE'),
  ('cryptography.hazmat.primitives.kdf',
   'c:\\users\\karl-jaak\\anaconda3\\lib\\site-packages\\cryptography\\hazmat\\primitives\\kdf\\__init__.py',
   'PYMODULE'),
  ('cryptography.hazmat.primitives.ciphers.modes',
   'c:\\users\\karl-jaak\\anaconda3\\lib\\site-packages\\cryptography\\hazmat\\primitives\\ciphers\\modes.py',
   'PYMODULE'),
  ('cryptography.hazmat.primitives.ciphers',
   'c:\\users\\karl-jaak\\anaconda3\\lib\\site-packages\\cryptography\\hazmat\\primitives\\ciphers\\__init__.py',
   'PYMODULE'),
  ('cryptography.hazmat.primitives.ciphers.base',
   'c:\\users\\karl-jaak\\anaconda3\\lib\\site-packages\\cryptography\\hazmat\\primitives\\ciphers\\base.py',
   'PYMODULE'),
  ('cryptography.hazmat.primitives.ciphers.algorithms',
   'c:\\users\\karl-jaak\\anaconda3\\lib\\site-packages\\cryptography\\hazmat\\primitives\\ciphers\\algorithms.py',
   'PYMODULE'),
  ('cryptography.hazmat.primitives.asymmetric.padding',
   'c:\\users\\karl-jaak\\anaconda3\\lib\\site-packages\\cryptography\\hazmat\\primitives\\asymmetric\\padding.py',
   'PYMODULE'),
  ('cryptography.hazmat.backends.openssl.x25519',
   'c:\\users\\karl-jaak\\anaconda3\\lib\\site-packages\\cryptography\\hazmat\\backends\\openssl\\x25519.py',
   'PYMODULE'),
  ('cryptography.hazmat.primitives.asymmetric.x25519',
   'c:\\users\\karl-jaak\\anaconda3\\lib\\site-packages\\cryptography\\hazmat\\primitives\\asymmetric\\x25519.py',
   'PYMODULE'),
  ('cryptography.hazmat.backends.openssl.rsa',
   'c:\\users\\karl-jaak\\anaconda3\\lib\\site-packages\\cryptography\\hazmat\\backends\\openssl\\rsa.py',
   'PYMODULE'),
  ('cryptography.hazmat.backends.openssl.utils',
   'c:\\users\\karl-jaak\\anaconda3\\lib\\site-packages\\cryptography\\hazmat\\backends\\openssl\\utils.py',
   'PYMODULE'),
  ('cryptography.hazmat.primitives.asymmetric.utils',
   'c:\\users\\karl-jaak\\anaconda3\\lib\\site-packages\\cryptography\\hazmat\\primitives\\asymmetric\\utils.py',
   'PYMODULE'),
  ('cryptography.hazmat.backends.openssl.hmac',
   'c:\\users\\karl-jaak\\anaconda3\\lib\\site-packages\\cryptography\\hazmat\\backends\\openssl\\hmac.py',
   'PYMODULE'),
  ('cryptography.hazmat.backends.openssl.hashes',
   'c:\\users\\karl-jaak\\anaconda3\\lib\\site-packages\\cryptography\\hazmat\\backends\\openssl\\hashes.py',
   'PYMODULE'),
  ('cryptography.hazmat.backends.openssl.encode_asn1',
   'c:\\users\\karl-jaak\\anaconda3\\lib\\site-packages\\cryptography\\hazmat\\backends\\openssl\\encode_asn1.py',
   'PYMODULE'),
  ('cryptography.hazmat.backends.openssl.ec',
   'c:\\users\\karl-jaak\\anaconda3\\lib\\site-packages\\cryptography\\hazmat\\backends\\openssl\\ec.py',
   'PYMODULE'),
  ('cryptography.hazmat.backends.openssl.dsa',
   'c:\\users\\karl-jaak\\anaconda3\\lib\\site-packages\\cryptography\\hazmat\\backends\\openssl\\dsa.py',
   'PYMODULE'),
  ('cryptography.hazmat.backends.openssl.dh',
   'c:\\users\\karl-jaak\\anaconda3\\lib\\site-packages\\cryptography\\hazmat\\backends\\openssl\\dh.py',
   'PYMODULE'),
  ('cryptography.hazmat.backends.openssl.cmac',
   'c:\\users\\karl-jaak\\anaconda3\\lib\\site-packages\\cryptography\\hazmat\\backends\\openssl\\cmac.py',
   'PYMODULE'),
  ('cryptography.hazmat.backends.openssl.ciphers',
   'c:\\users\\karl-jaak\\anaconda3\\lib\\site-packages\\cryptography\\hazmat\\backends\\openssl\\ciphers.py',
   'PYMODULE'),
  ('cryptography.hazmat.backends.openssl.aead',
   'c:\\users\\karl-jaak\\anaconda3\\lib\\site-packages\\cryptography\\hazmat\\backends\\openssl\\aead.py',
   'PYMODULE'),
  ('cryptography.hazmat.primitives.ciphers.aead',
   'c:\\users\\karl-jaak\\anaconda3\\lib\\site-packages\\cryptography\\hazmat\\primitives\\ciphers\\aead.py',
   'PYMODULE'),
  ('cryptography.hazmat.backends.openssl',
   'c:\\users\\karl-jaak\\anaconda3\\lib\\site-packages\\cryptography\\hazmat\\backends\\openssl\\__init__.py',
   'PYMODULE'),
  ('cryptography.x509',
   'c:\\users\\karl-jaak\\anaconda3\\lib\\site-packages\\cryptography\\x509\\__init__.py',
   'PYMODULE'),
  ('cryptography.x509.base',
   'c:\\users\\karl-jaak\\anaconda3\\lib\\site-packages\\cryptography\\x509\\base.py',
   'PYMODULE'),
  ('cryptography',
   'c:\\users\\karl-jaak\\anaconda3\\lib\\site-packages\\cryptography\\__init__.py',
   'PYMODULE'),
  ('cryptography.__about__',
   'c:\\users\\karl-jaak\\anaconda3\\lib\\site-packages\\cryptography\\__about__.py',
   'PYMODULE'),
  ('OpenSSL.SSL',
   'c:\\users\\karl-jaak\\anaconda3\\lib\\site-packages\\OpenSSL\\SSL.py',
   'PYMODULE'),
  ('urllib3.contrib',
   'c:\\users\\karl-jaak\\anaconda3\\lib\\site-packages\\urllib3\\contrib\\__init__.py',
   'PYMODULE'),
  ('requests.exceptions',
   'c:\\users\\karl-jaak\\anaconda3\\lib\\site-packages\\requests\\exceptions.py',
   'PYMODULE'),
  ('chardet',
   'c:\\users\\karl-jaak\\anaconda3\\lib\\site-packages\\chardet\\__init__.py',
   'PYMODULE'),
  ('chardet.version',
   'c:\\users\\karl-jaak\\anaconda3\\lib\\site-packages\\chardet\\version.py',
   'PYMODULE'),
  ('chardet.universaldetector',
   'c:\\users\\karl-jaak\\anaconda3\\lib\\site-packages\\chardet\\universaldetector.py',
   'PYMODULE'),
  ('chardet.sbcsgroupprober',
   'c:\\users\\karl-jaak\\anaconda3\\lib\\site-packages\\chardet\\sbcsgroupprober.py',
   'PYMODULE'),
  ('chardet.langturkishmodel',
   'c:\\users\\karl-jaak\\anaconda3\\lib\\site-packages\\chardet\\langturkishmodel.py',
   'PYMODULE'),
  ('chardet.hebrewprober',
   'c:\\users\\karl-jaak\\anaconda3\\lib\\site-packages\\chardet\\hebrewprober.py',
   'PYMODULE'),
  ('chardet.charsetprober',
   'c:\\users\\karl-jaak\\anaconda3\\lib\\site-packages\\chardet\\charsetprober.py',
   'PYMODULE'),
  ('chardet.langhebrewmodel',
   'c:\\users\\karl-jaak\\anaconda3\\lib\\site-packages\\chardet\\langhebrewmodel.py',
   'PYMODULE'),
  ('chardet.langthaimodel',
   'c:\\users\\karl-jaak\\anaconda3\\lib\\site-packages\\chardet\\langthaimodel.py',
   'PYMODULE'),
  ('chardet.langbulgarianmodel',
   'c:\\users\\karl-jaak\\anaconda3\\lib\\site-packages\\chardet\\langbulgarianmodel.py',
   'PYMODULE'),
  ('chardet.langgreekmodel',
   'c:\\users\\karl-jaak\\anaconda3\\lib\\site-packages\\chardet\\langgreekmodel.py',
   'PYMODULE'),
  ('chardet.langcyrillicmodel',
   'c:\\users\\karl-jaak\\anaconda3\\lib\\site-packages\\chardet\\langcyrillicmodel.py',
   'PYMODULE'),
  ('chardet.sbcharsetprober',
   'c:\\users\\karl-jaak\\anaconda3\\lib\\site-packages\\chardet\\sbcharsetprober.py',
   'PYMODULE'),
  ('chardet.mbcsgroupprober',
   'c:\\users\\karl-jaak\\anaconda3\\lib\\site-packages\\chardet\\mbcsgroupprober.py',
   'PYMODULE'),
  ('chardet.euctwprober',
   'c:\\users\\karl-jaak\\anaconda3\\lib\\site-packages\\chardet\\euctwprober.py',
   'PYMODULE'),
  ('chardet.mbcssm',
   'c:\\users\\karl-jaak\\anaconda3\\lib\\site-packages\\chardet\\mbcssm.py',
   'PYMODULE'),
  ('chardet.chardistribution',
   'c:\\users\\karl-jaak\\anaconda3\\lib\\site-packages\\chardet\\chardistribution.py',
   'PYMODULE'),
  ('chardet.jisfreq',
   'c:\\users\\karl-jaak\\anaconda3\\lib\\site-packages\\chardet\\jisfreq.py',
   'PYMODULE'),
  ('chardet.big5freq',
   'c:\\users\\karl-jaak\\anaconda3\\lib\\site-packages\\chardet\\big5freq.py',
   'PYMODULE'),
  ('chardet.gb2312freq',
   'c:\\users\\karl-jaak\\anaconda3\\lib\\site-packages\\chardet\\gb2312freq.py',
   'PYMODULE'),
  ('chardet.euckrfreq',
   'c:\\users\\karl-jaak\\anaconda3\\lib\\site-packages\\chardet\\euckrfreq.py',
   'PYMODULE'),
  ('chardet.euctwfreq',
   'c:\\users\\karl-jaak\\anaconda3\\lib\\site-packages\\chardet\\euctwfreq.py',
   'PYMODULE'),
  ('chardet.codingstatemachine',
   'c:\\users\\karl-jaak\\anaconda3\\lib\\site-packages\\chardet\\codingstatemachine.py',
   'PYMODULE'),
  ('chardet.mbcharsetprober',
   'c:\\users\\karl-jaak\\anaconda3\\lib\\site-packages\\chardet\\mbcharsetprober.py',
   'PYMODULE'),
  ('chardet.big5prober',
   'c:\\users\\karl-jaak\\anaconda3\\lib\\site-packages\\chardet\\big5prober.py',
   'PYMODULE'),
  ('chardet.cp949prober',
   'c:\\users\\karl-jaak\\anaconda3\\lib\\site-packages\\chardet\\cp949prober.py',
   'PYMODULE'),
  ('chardet.euckrprober',
   'c:\\users\\karl-jaak\\anaconda3\\lib\\site-packages\\chardet\\euckrprober.py',
   'PYMODULE'),
  ('chardet.gb2312prober',
   'c:\\users\\karl-jaak\\anaconda3\\lib\\site-packages\\chardet\\gb2312prober.py',
   'PYMODULE'),
  ('chardet.eucjpprober',
   'c:\\users\\karl-jaak\\anaconda3\\lib\\site-packages\\chardet\\eucjpprober.py',
   'PYMODULE'),
  ('chardet.jpcntx',
   'c:\\users\\karl-jaak\\anaconda3\\lib\\site-packages\\chardet\\jpcntx.py',
   'PYMODULE'),
  ('chardet.sjisprober',
   'c:\\users\\karl-jaak\\anaconda3\\lib\\site-packages\\chardet\\sjisprober.py',
   'PYMODULE'),
  ('chardet.utf8prober',
   'c:\\users\\karl-jaak\\anaconda3\\lib\\site-packages\\chardet\\utf8prober.py',
   'PYMODULE'),
  ('chardet.latin1prober',
   'c:\\users\\karl-jaak\\anaconda3\\lib\\site-packages\\chardet\\latin1prober.py',
   'PYMODULE'),
  ('chardet.escprober',
   'c:\\users\\karl-jaak\\anaconda3\\lib\\site-packages\\chardet\\escprober.py',
   'PYMODULE'),
  ('chardet.escsm',
   'c:\\users\\karl-jaak\\anaconda3\\lib\\site-packages\\chardet\\escsm.py',
   'PYMODULE'),
  ('chardet.enums',
   'c:\\users\\karl-jaak\\anaconda3\\lib\\site-packages\\chardet\\enums.py',
   'PYMODULE'),
  ('chardet.charsetgroupprober',
   'c:\\users\\karl-jaak\\anaconda3\\lib\\site-packages\\chardet\\charsetgroupprober.py',
   'PYMODULE'),
  ('chardet.compat',
   'c:\\users\\karl-jaak\\anaconda3\\lib\\site-packages\\chardet\\compat.py',
   'PYMODULE'),
  ('urllib3',
   'c:\\users\\karl-jaak\\anaconda3\\lib\\site-packages\\urllib3\\__init__.py',
   'PYMODULE'),
  ('bibtexparser',
   'c:\\users\\karl-jaak\\anaconda3\\lib\\site-packages\\bibtexparser\\__init__.py',
   'PYMODULE'),
  ('bibtexparser.customization',
   'c:\\users\\karl-jaak\\anaconda3\\lib\\site-packages\\bibtexparser\\customization.py',
   'PYMODULE'),
  ('bibtexparser.latexenc',
   'c:\\users\\karl-jaak\\anaconda3\\lib\\site-packages\\bibtexparser\\latexenc.py',
   'PYMODULE'),
  ('bibtexparser.bwriter',
   'c:\\users\\karl-jaak\\anaconda3\\lib\\site-packages\\bibtexparser\\bwriter.py',
   'PYMODULE'),
  ('bibtexparser.bparser',
   'c:\\users\\karl-jaak\\anaconda3\\lib\\site-packages\\bibtexparser\\bparser.py',
   'PYMODULE'),
  ('bibtexparser.bibtexexpression',
   'c:\\users\\karl-jaak\\anaconda3\\lib\\site-packages\\bibtexparser\\bibtexexpression.py',
   'PYMODULE'),
  ('pyparsing',
   'c:\\users\\karl-jaak\\anaconda3\\lib\\site-packages\\pyparsing.py',
   'PYMODULE'),
  ('bibtexparser.bibdatabase',
   'c:\\users\\karl-jaak\\anaconda3\\lib\\site-packages\\bibtexparser\\bibdatabase.py',
   'PYMODULE'),
  ('arrow',
   'c:\\users\\karl-jaak\\anaconda3\\lib\\site-packages\\arrow\\__init__.py',
   'PYMODULE'),
  ('arrow.api',
   'c:\\users\\karl-jaak\\anaconda3\\lib\\site-packages\\arrow\\api.py',
   'PYMODULE'),
  ('arrow.factory',
   'c:\\users\\karl-jaak\\anaconda3\\lib\\site-packages\\arrow\\factory.py',
   'PYMODULE'),
  ('dateutil.tz',
   'c:\\users\\karl-jaak\\anaconda3\\lib\\site-packages\\dateutil\\tz\\__init__.py',
   'PYMODULE'),
  ('dateutil.tz.tz',
   'c:\\users\\karl-jaak\\anaconda3\\lib\\site-packages\\dateutil\\tz\\tz.py',
   'PYMODULE'),
  ('dateutil.zoneinfo',
   'c:\\users\\karl-jaak\\anaconda3\\lib\\site-packages\\dateutil\\zoneinfo\\__init__.py',
   'PYMODULE'),
  ('dateutil.rrule',
   'c:\\users\\karl-jaak\\anaconda3\\lib\\site-packages\\dateutil\\rrule.py',
   'PYMODULE'),
  ('dateutil.easter',
   'c:\\users\\karl-jaak\\anaconda3\\lib\\site-packages\\dateutil\\easter.py',
   'PYMODULE'),
  ('dateutil._common',
   'c:\\users\\karl-jaak\\anaconda3\\lib\\site-packages\\dateutil\\_common.py',
   'PYMODULE'),
  ('dateutil.parser',
   'c:\\users\\karl-jaak\\anaconda3\\lib\\site-packages\\dateutil\\parser.py',
   'PYMODULE'),
  ('dateutil.relativedelta',
   'c:\\users\\karl-jaak\\anaconda3\\lib\\site-packages\\dateutil\\relativedelta.py',
   'PYMODULE'),
  ('dateutil.tz.win',
   'c:\\users\\karl-jaak\\anaconda3\\lib\\site-packages\\dateutil\\tz\\win.py',
   'PYMODULE'),
  ('ctypes.wintypes',
   'c:\\users\\karl-jaak\\anaconda3\\lib\\ctypes\\wintypes.py',
   'PYMODULE'),
  ('dateutil.tz._common',
   'c:\\users\\karl-jaak\\anaconda3\\lib\\site-packages\\dateutil\\tz\\_common.py',
   'PYMODULE'),
  ('dateutil',
   'c:\\users\\karl-jaak\\anaconda3\\lib\\site-packages\\dateutil\\__init__.py',
   'PYMODULE'),
  ('dateutil._version',
   'c:\\users\\karl-jaak\\anaconda3\\lib\\site-packages\\dateutil\\_version.py',
   'PYMODULE'),
  ('arrow.arrow',
   'c:\\users\\karl-jaak\\anaconda3\\lib\\site-packages\\arrow\\arrow.py',
   'PYMODULE'),
  ('arrow.formatter',
   'c:\\users\\karl-jaak\\anaconda3\\lib\\site-packages\\arrow\\formatter.py',
   'PYMODULE'),
  ('arrow.parser',
   'c:\\users\\karl-jaak\\anaconda3\\lib\\site-packages\\arrow\\parser.py',
   'PYMODULE'),
  ('arrow.locales',
   'c:\\users\\karl-jaak\\anaconda3\\lib\\site-packages\\arrow\\locales.py',
   'PYMODULE'),
  ('arrow.util',
   'c:\\users\\karl-jaak\\anaconda3\\lib\\site-packages\\arrow\\util.py',
   'PYMODULE'),
  ('bs4',
   'c:\\users\\karl-jaak\\anaconda3\\lib\\site-packages\\bs4\\__init__.py',
   'PYMODULE'),
  ('bs4.element',
   'c:\\users\\karl-jaak\\anaconda3\\lib\\site-packages\\bs4\\element.py',
   'PYMODULE'),
  ('bs4.dammit',
   'c:\\users\\karl-jaak\\anaconda3\\lib\\site-packages\\bs4\\dammit.py',
   'PYMODULE'),
  ('bs4.builder',
   'c:\\users\\karl-jaak\\anaconda3\\lib\\site-packages\\bs4\\builder\\__init__.py',
   'PYMODULE'),
  ('bs4.builder._lxml',
   'c:\\users\\karl-jaak\\anaconda3\\lib\\site-packages\\bs4\\builder\\_lxml.py',
   'PYMODULE'),
  ('bs4.builder._html5lib',
   'c:\\users\\karl-jaak\\anaconda3\\lib\\site-packages\\bs4\\builder\\_html5lib.py',
   'PYMODULE'),
  ('html5lib.treebuilders.base',
   'c:\\users\\karl-jaak\\anaconda3\\lib\\site-packages\\html5lib\\treebuilders\\base.py',
   'PYMODULE'),
  ('html5lib.treebuilders',
   'c:\\users\\karl-jaak\\anaconda3\\lib\\site-packages\\html5lib\\treebuilders\\__init__.py',
   'PYMODULE'),
  ('html5lib.treebuilders.etree_lxml',
   'c:\\users\\karl-jaak\\anaconda3\\lib\\site-packages\\html5lib\\treebuilders\\etree_lxml.py',
   'PYMODULE'),
  ('html5lib._ihatexml',
   'c:\\users\\karl-jaak\\anaconda3\\lib\\site-packages\\html5lib\\_ihatexml.py',
   'PYMODULE'),
  ('html5lib.treebuilders.etree',
   'c:\\users\\karl-jaak\\anaconda3\\lib\\site-packages\\html5lib\\treebuilders\\etree.py',
   'PYMODULE'),
  ('xml.dom.minidom',
   'c:\\users\\karl-jaak\\anaconda3\\lib\\xml\\dom\\minidom.py',
   'PYMODULE'),
  ('xml.dom.pulldom',
   'c:\\users\\karl-jaak\\anaconda3\\lib\\xml\\dom\\pulldom.py',
   'PYMODULE'),
  ('xml.dom.expatbuilder',
   'c:\\users\\karl-jaak\\anaconda3\\lib\\xml\\dom\\expatbuilder.py',
   'PYMODULE'),
  ('xml.dom.NodeFilter',
   'c:\\users\\karl-jaak\\anaconda3\\lib\\xml\\dom\\NodeFilter.py',
   'PYMODULE'),
  ('xml.dom.xmlbuilder',
   'c:\\users\\karl-jaak\\anaconda3\\lib\\xml\\dom\\xmlbuilder.py',
   'PYMODULE'),
  ('xml.dom.minicompat',
   'c:\\users\\karl-jaak\\anaconda3\\lib\\xml\\dom\\minicompat.py',
   'PYMODULE'),
  ('xml.dom.domreg',
   'c:\\users\\karl-jaak\\anaconda3\\lib\\xml\\dom\\domreg.py',
   'PYMODULE'),
  ('xml.dom',
   'c:\\users\\karl-jaak\\anaconda3\\lib\\xml\\dom\\__init__.py',
   'PYMODULE'),
  ('html5lib.treebuilders.dom',
   'c:\\users\\karl-jaak\\anaconda3\\lib\\site-packages\\html5lib\\treebuilders\\dom.py',
   'PYMODULE'),
  ('html5lib._utils',
   'c:\\users\\karl-jaak\\anaconda3\\lib\\site-packages\\html5lib\\_utils.py',
   'PYMODULE'),
  ('html5lib.constants',
   'c:\\users\\karl-jaak\\anaconda3\\lib\\site-packages\\html5lib\\constants.py',
   'PYMODULE'),
  ('html5lib',
   'c:\\users\\karl-jaak\\anaconda3\\lib\\site-packages\\html5lib\\__init__.py',
   'PYMODULE'),
  ('html5lib.serializer',
   'c:\\users\\karl-jaak\\anaconda3\\lib\\site-packages\\html5lib\\serializer.py',
   'PYMODULE'),
  ('html5lib.filters.optionaltags',
   'c:\\users\\karl-jaak\\anaconda3\\lib\\site-packages\\html5lib\\filters\\optionaltags.py',
   'PYMODULE'),
  ('html5lib.filters.base',
   'c:\\users\\karl-jaak\\anaconda3\\lib\\site-packages\\html5lib\\filters\\base.py',
   'PYMODULE'),
  ('html5lib.filters',
   'c:\\users\\karl-jaak\\anaconda3\\lib\\site-packages\\html5lib\\filters\\__init__.py',
   'PYMODULE'),
  ('html5lib.filters.sanitizer',
   'c:\\users\\karl-jaak\\anaconda3\\lib\\site-packages\\html5lib\\filters\\sanitizer.py',
   'PYMODULE'),
  ('html5lib.filters.whitespace',
   'c:\\users\\karl-jaak\\anaconda3\\lib\\site-packages\\html5lib\\filters\\whitespace.py',
   'PYMODULE'),
  ('html5lib.filters.alphabeticalattributes',
   'c:\\users\\karl-jaak\\anaconda3\\lib\\site-packages\\html5lib\\filters\\alphabeticalattributes.py',
   'PYMODULE'),
  ('html5lib.filters.inject_meta_charset',
   'c:\\users\\karl-jaak\\anaconda3\\lib\\site-packages\\html5lib\\filters\\inject_meta_charset.py',
   'PYMODULE'),
  ('html5lib.treewalkers',
   'c:\\users\\karl-jaak\\anaconda3\\lib\\site-packages\\html5lib\\treewalkers\\__init__.py',
   'PYMODULE'),
  ('html5lib.treewalkers.etree',
   'c:\\users\\karl-jaak\\anaconda3\\lib\\site-packages\\html5lib\\treewalkers\\etree.py',
   'PYMODULE'),
  ('html5lib.treewalkers.etree_lxml',
   'c:\\users\\karl-jaak\\anaconda3\\lib\\site-packages\\html5lib\\treewalkers\\etree_lxml.py',
   'PYMODULE'),
  ('html5lib.treewalkers.genshi',
   'c:\\users\\karl-jaak\\anaconda3\\lib\\site-packages\\html5lib\\treewalkers\\genshi.py',
   'PYMODULE'),
  ('html5lib.treewalkers.dom',
   'c:\\users\\karl-jaak\\anaconda3\\lib\\site-packages\\html5lib\\treewalkers\\dom.py',
   'PYMODULE'),
  ('html5lib.treewalkers.base',
   'c:\\users\\karl-jaak\\anaconda3\\lib\\site-packages\\html5lib\\treewalkers\\base.py',
   'PYMODULE'),
  ('html5lib.html5parser',
   'c:\\users\\karl-jaak\\anaconda3\\lib\\site-packages\\html5lib\\html5parser.py',
   'PYMODULE'),
  ('html5lib._tokenizer',
   'c:\\users\\karl-jaak\\anaconda3\\lib\\site-packages\\html5lib\\_tokenizer.py',
   'PYMODULE'),
  ('html5lib._trie',
   'c:\\users\\karl-jaak\\anaconda3\\lib\\site-packages\\html5lib\\_trie\\__init__.py',
   'PYMODULE'),
  ('html5lib._trie.datrie',
   'c:\\users\\karl-jaak\\anaconda3\\lib\\site-packages\\html5lib\\_trie\\datrie.py',
   'PYMODULE'),
  ('html5lib._trie._base',
   'c:\\users\\karl-jaak\\anaconda3\\lib\\site-packages\\html5lib\\_trie\\_base.py',
   'PYMODULE'),
  ('html5lib._trie.py',
   'c:\\users\\karl-jaak\\anaconda3\\lib\\site-packages\\html5lib\\_trie\\py.py',
   'PYMODULE'),
  ('html5lib._inputstream',
   'c:\\users\\karl-jaak\\anaconda3\\lib\\site-packages\\html5lib\\_inputstream.py',
   'PYMODULE'),
  ('webencodings',
   'c:\\users\\karl-jaak\\anaconda3\\lib\\site-packages\\webencodings\\__init__.py',
   'PYMODULE'),
  ('webencodings.x_user_defined',
   'c:\\users\\karl-jaak\\anaconda3\\lib\\site-packages\\webencodings\\x_user_defined.py',
   'PYMODULE'),
  ('webencodings.labels',
   'c:\\users\\karl-jaak\\anaconda3\\lib\\site-packages\\webencodings\\labels.py',
   'PYMODULE'),
  ('bs4.builder._htmlparser',
   'c:\\users\\karl-jaak\\anaconda3\\lib\\site-packages\\bs4\\builder\\_htmlparser.py',
   'PYMODULE'),
  ('html.parser',
   'c:\\users\\karl-jaak\\anaconda3\\lib\\html\\parser.py',
   'PYMODULE'),
  ('_markupbase',
   'c:\\users\\karl-jaak\\anaconda3\\lib\\_markupbase.py',
   'PYMODULE'),
  ('json',
   'c:\\users\\karl-jaak\\anaconda3\\lib\\json\\__init__.py',
   'PYMODULE'),
  ('json.encoder',
   'c:\\users\\karl-jaak\\anaconda3\\lib\\json\\encoder.py',
   'PYMODULE'),
  ('json.decoder',
   'c:\\users\\karl-jaak\\anaconda3\\lib\\json\\decoder.py',
   'PYMODULE'),
  ('json.scanner',
   'c:\\users\\karl-jaak\\anaconda3\\lib\\json\\scanner.py',
   'PYMODULE'),
  ('elsapy.elssearch',
   'c:\\users\\karl-jaak\\anaconda3\\lib\\site-packages\\elsapy\\elssearch.py',
   'PYMODULE'),
  ('elsapy.log_util',
   'c:\\users\\karl-jaak\\anaconda3\\lib\\site-packages\\elsapy\\log_util.py',
   'PYMODULE'),
  ('pathlib2',
   'c:\\users\\karl-jaak\\anaconda3\\lib\\site-packages\\pathlib2.py',
   'PYMODULE'),
  ('pathlib', 'c:\\users\\karl-jaak\\anaconda3\\lib\\pathlib.py', 'PYMODULE'),
  ('elsapy',
   'c:\\users\\karl-jaak\\anaconda3\\lib\\site-packages\\elsapy\\__init__.py',
   'PYMODULE'),
  ('elsapy.elsdoc',
   'c:\\users\\karl-jaak\\anaconda3\\lib\\site-packages\\elsapy\\elsdoc.py',
   'PYMODULE'),
  ('elsapy.elsentity',
   'c:\\users\\karl-jaak\\anaconda3\\lib\\site-packages\\elsapy\\elsentity.py',
   'PYMODULE'),
  ('elsapy.elsprofile',
   'c:\\users\\karl-jaak\\anaconda3\\lib\\site-packages\\elsapy\\elsprofile.py',
   'PYMODULE'),
  ('elsapy.elsclient',
   'c:\\users\\karl-jaak\\anaconda3\\lib\\site-packages\\elsapy\\elsclient.py',
   'PYMODULE'),
  ('elsapy.__init__',
   'c:\\users\\karl-jaak\\anaconda3\\lib\\site-packages\\elsapy\\__init__.py',
   'PYMODULE'),
  ('tkinter.ttk',
   'c:\\users\\karl-jaak\\anaconda3\\lib\\tkinter\\ttk.py',
   'PYMODULE'),
  ('tkinter',
   'c:\\users\\karl-jaak\\anaconda3\\lib\\tkinter\\__init__.py',
   'PYMODULE'),
  ('tkinter.constants',
   'c:\\users\\karl-jaak\\anaconda3\\lib\\tkinter\\constants.py',
   'PYMODULE')])
